<svg width="40" height="40" viewBox="0 0 40 40" fill="none" xmlns="http://www.w3.org/2000/svg">
<path d="M20.5 10.1667L18.0617 12.605L20.5 15.0433M11.4817 9L10 10.4817L15.5183 16H10V23H14.6667L20.5 28.8333V20.9817L25.4583 25.9517C24.6767 26.5467 23.8017 27.0367 22.8333 27.3167V29.7317C24.4433 29.3583 25.9017 28.6233 27.1267 27.62L29.5183 30L31 28.5183L20.5 18.0183M28.6667 19.5C28.6667 20.5967 28.4333 21.6233 28.0367 22.58L29.7983 24.3417C30.5857 22.8491 30.9981 21.1875 31 19.5C31 14.5067 27.5 10.33 22.8333 9.26833V11.6717C26.205 12.675 28.6667 15.8017 28.6667 19.5ZM25.75 19.5C25.75 17.435 24.5833 15.6617 22.8333 14.7983V17.3767L25.6917 20.235C25.75 20.0017 25.75 19.745 25.75 19.5Z" fill="white"/>
</svg>
